…
# "Fill out" Shortname
for (i in  2:nrow(df_stations_all)){
  if (is.na(df_stations_all$Shortname[i]))
    df_stations_all$Shortname[i] <- df_stations_all$Shortname[i-1]
}

df_stations_all
```

```
## # A tibble: 57 x 7
##    Shortname   Breddegrad Lengdegrad Index_ecol Class_chem   Lat  Long
##    <chr>       <chr>      <chr>           <dbl> <chr>      <dbl> <dbl>
##  1 01.TRY3     61.30751   12.27225        0.704 i.d.        61.3 12.3 
##  2 02.TRY (2)* 61.15568   12.45251        0.715 i.d.        61.2 12.5 
##  3 02.TRY (2)* 61.05906   12.59334       NA     <NA>        61.1 12.6 
##  4 04.LYG (3)  58.26201   7.19762         0.562 i.d.        58.3  7.20
##  5 04.LYG (3)  58.21293   7.13642        NA     <NA>        58.2  7.14
##  6 04.LYG (3)  58.16264   7.08809        NA     <NA>        58.2  7.09
##  7 07.BJE (2)  58.59265   6.08162         0.468 i.d.        58.6  6.08
##  8 07.BJE (2)  58.52963   6.03124        NA     <NA>        58.5  6.03
##  9 09.BJE1     58.47812   5.99556         0.427 God         58.5  6.00
## 10 10.VIK3     59.5667748 6.0840333       0.615 i.d.        59.6  6.08
## # ... with 47 more rows
```
…
```r
df_index <- read_excel("Data_input/2019/KartOgFigurgrunnlag_TilDag.xlsx", sheet = "Figurgrunnlag", na = "NA")
df_index <- df_index[1:4]

names(df_index) <- c("Rapportnavn", "nEQR_eutrofi", "nEQR_forsuring", "nEQR_ecol")
# Note: in 'make_indexplot()', the name "Rapportnavn" is hard-coded

df_index <- df_index %>%
  mutate(nEQR_forsuring = ifelse(nEQR_forsuring > 1, 1, nEQR_forsuring))

df_index
```

```
## # A tibble: 41 x 4
##    Rapportnavn nEQR_eutrofi nEQR_forsuring nEQR_ecol
##    <chr>              <dbl>          <dbl>     <dbl>
##  1 01.TRY3            0.920          0.951     0.704
##  2 02.TRY (2)*        0.885          0.944     0.715
##  3 04.LYG (3)         0.882          0.562     0.562
##  4 07.BJE (2)         0.908          0.468     0.468
##  5 09.BJE1            0.880          0.427     0.427
##  6 10.VIK3            0.966          0.615     0.615
##  7 11.VIK2            0.969          0.814     0.762
##  8 12.VIK1            0.937          1         0.730
##  9 13.EKS (2)*        0.703          1         0.703
## 10 15.EKS1*           0.739          1         0.739
## # ... with 31 more rows
```
…
